…
```r
got_chars %>% 
	map("aliases") %>%
	set_names(map_chr(got_chars, "name")) %>%
	enframe("name", "aliases")
```

```
## # A tibble: 30 x 2
##    name               aliases   
##    <chr>              <list>    
##  1 Theon Greyjoy      <chr [4]> 
##  2 Tyrion Lannister   <chr [11]>
##  3 Victarion Greyjoy  <chr [1]> 
##  4 Will               <chr [1]> 
##  5 Areo Hotah         <chr [1]> 
##  6 Chett              <chr [1]> 
##  7 Cressen            <chr [1]> 
##  8 Arianne Martell    <chr [1]> 
##  9 Daenerys Targaryen <chr [11]>
## 10 Davos Seaworth     <chr [5]> 
## # ... with 20 more rows
```

```r
got_chars %>% 
	map("aliases") %>%
	set_names(map_chr(got_chars, "name")) %>%
	enframe("name", "aliases") %>%
	unnest(aliases)
```

```
## # A tibble: 114 x 2
##    name             aliases           
##    <chr>            <chr>             
##  1 Theon Greyjoy    Prince of Fools   
##  2 Theon Greyjoy    Theon Turncloak   
##  3 Theon Greyjoy    Reek              
##  4 Theon Greyjoy    Theon Kinslayer   
##  5 Tyrion Lannister The Imp           
##  6 Tyrion Lannister Halfman           
##  7 Tyrion Lannister The boyman        
##  8 Tyrion Lannister Giant of Lannister
##  9 Tyrion Lannister Lord Tywin's Doom 
## 10 Tyrion Lannister Lord Tywin's Bane 
## # ... with 104 more rows
```
…
```r
got_chars %>% 
	map("allegiances") %>%
	set_names(map_chr(got_chars, "name")) %>%
	map(~ paste(., collapse = " | ")) %>%
	enframe("name", "allegiances") %>%
	unnest("allegiances")
```

```
## # A tibble: 30 x 2
##    name               allegiances                                               
##    <chr>              <chr>                                                     
##  1 Theon Greyjoy      "House Greyjoy of Pyke"                                   
##  2 Tyrion Lannister   "House Lannister of Casterly Rock"                        
##  3 Victarion Greyjoy  "House Greyjoy of Pyke"                                   
##  4 Will               ""                                                        
##  5 Areo Hotah         "House Nymeros Martell of Sunspear"                       
##  6 Chett              ""                                                        
##  7 Cressen            ""                                                        
##  8 Arianne Martell    "House Nymeros Martell of Sunspear"                       
##  9 Daenerys Targaryen "House Targaryen of King's Landing"                       
## 10 Davos Seaworth     "House Baratheon of Dragonstone | House Seaworth of Cape ~
## # ... with 20 more rows
```
…
