…
### Data frame output


```r
got_chars %>% map_dfr(`[`, c("id", "name", "gender", "alive"))
```

```
## # A tibble: 30 x 4
##       id name               gender alive
##    <int> <chr>              <chr>  <lgl>
##  1  1022 Theon Greyjoy      Male   TRUE 
##  2  1052 Tyrion Lannister   Male   TRUE 
##  3  1074 Victarion Greyjoy  Male   TRUE 
##  4  1109 Will               Male   FALSE
##  5  1166 Areo Hotah         Male   TRUE 
##  6  1267 Chett              Male   FALSE
##  7  1295 Cressen            Male   FALSE
##  8   130 Arianne Martell    Female TRUE 
##  9  1303 Daenerys Targaryen Female TRUE 
## 10  1319 Davos Seaworth     Male   TRUE 
## # ... with 20 more rows
```

```r
got_chars %>% tibble(id = map_int(., "id"),
		 name = map_chr(., "name"))
```

```
## # A tibble: 30 x 3
##    .                    id name              
##    <list>            <int> <chr>             
##  1 <named list [18]>  1022 Theon Greyjoy     
##  2 <named list [18]>  1052 Tyrion Lannister  
##  3 <named list [18]>  1074 Victarion Greyjoy 
##  4 <named list [18]>  1109 Will              
##  5 <named list [18]>  1166 Areo Hotah        
##  6 <named list [18]>  1267 Chett             
##  7 <named list [18]>  1295 Cressen           
##  8 <named list [18]>   130 Arianne Martell   
##  9 <named list [18]>  1303 Daenerys Targaryen
## 10 <named list [18]>  1319 Davos Seaworth    
## # ... with 20 more rows
```

```r
got_chars %>% {tibble(id = map_int(., "id"),
		  name = map_chr(., "name"))}
```

```
## # A tibble: 30 x 2
##       id name              
##    <int> <chr>             
##  1  1022 Theon Greyjoy     
##  2  1052 Tyrion Lannister  
##  3  1074 Victarion Greyjoy 
##  4  1109 Will              
##  5  1166 Areo Hotah        
##  6  1267 Chett             
##  7  1295 Cressen           
##  8   130 Arianne Martell   
##  9  1303 Daenerys Targaryen
## 10  1319 Davos Seaworth    
## # ... with 20 more rows
```
…
