…
```r
one_user %>% map_df(`[`, c("name", "private", "open_issues"))
```

```
## # A tibble: 30 x 3
##    name        private open_issues
##    <chr>       <lgl>         <int>
##  1 after       FALSE             0
##  2 argufy      FALSE             6
##  3 ask         FALSE             4
##  4 baseimports FALSE             0
##  5 citest      FALSE             0
##  6 clisymbols  FALSE             0
##  7 cmaker      FALSE             0
##  8 cmark       FALSE             0
##  9 conditions  FALSE             0
## 10 crayon      FALSE             7
## # ... with 20 more rows
```
…
```r
udf %>% mutate(repo_info = gh_repos %>%
	     	map(. %>% map_df(`[`, c("name", "private", "open_issues")))) %>%
	tidyr::unnest(repo_info)
```

```
## # A tibble: 176 x 5
##    username    gh_repos    name        private open_issues
##    <chr>       <list>      <chr>       <lgl>         <int>
##  1 gaborcsardi <list [30]> after       FALSE             0
##  2 gaborcsardi <list [30]> argufy      FALSE             6
##  3 gaborcsardi <list [30]> ask         FALSE             4
##  4 gaborcsardi <list [30]> baseimports FALSE             0
##  5 gaborcsardi <list [30]> citest      FALSE             0
##  6 gaborcsardi <list [30]> clisymbols  FALSE             0
##  7 gaborcsardi <list [30]> cmaker      FALSE             0
##  8 gaborcsardi <list [30]> cmark       FALSE             0
##  9 gaborcsardi <list [30]> conditions  FALSE             0
## 10 gaborcsardi <list [30]> crayon      FALSE             7
## # ... with 166 more rows
```

```r
rdf <- udf %>% mutate(repo_info = gh_repos %>%
	     	map(. %>% map_df(`[`, c("name", "private", "open_issues")))) %>%
	# Remove the `gh_repos` variable
	select(-gh_repos) %>%
	tidyr::unnest(repo_info)
rdf
```

```
## # A tibble: 176 x 4
##    username    name        private open_issues
##    <chr>       <chr>       <lgl>         <int>
##  1 gaborcsardi after       FALSE             0
##  2 gaborcsardi argufy      FALSE             6
##  3 gaborcsardi ask         FALSE             4
##  4 gaborcsardi baseimports FALSE             0
##  5 gaborcsardi citest      FALSE             0
##  6 gaborcsardi clisymbols  FALSE             0
##  7 gaborcsardi cmaker      FALSE             0
##  8 gaborcsardi cmark       FALSE             0
##  9 gaborcsardi conditions  FALSE             0
## 10 gaborcsardi crayon      FALSE             7
## # ... with 166 more rows
```
…
