…
```r
nest_continent$data[[1]]
```

```
## # A tibble: 396 x 5
##    country      year lifeExp      pop gdpPercap
##    <fct>       <int>   <dbl>    <int>     <dbl>
##  1 Afghanistan  1952    28.8  8425333      779.
##  2 Afghanistan  1957    30.3  9240934      821.
##  3 Afghanistan  1962    32.0 10267083      853.
##  4 Afghanistan  1967    34.0 11537966      836.
##  5 Afghanistan  1972    36.1 13079460      740.
##  6 Afghanistan  1977    38.4 14880372      786.
##  7 Afghanistan  1982    39.9 12881816      978.
##  8 Afghanistan  1987    40.8 13867957      852.
##  9 Afghanistan  1992    41.7 16317921      649.
## 10 Afghanistan  1997    41.8 22227415      635.
## # ... with 386 more rows
```

```r
nest_continent %>% pluck("data", 1)
```

```
## # A tibble: 396 x 5
##    country      year lifeExp      pop gdpPercap
##    <fct>       <int>   <dbl>    <int>     <dbl>
##  1 Afghanistan  1952    28.8  8425333      779.
##  2 Afghanistan  1957    30.3  9240934      821.
##  3 Afghanistan  1962    32.0 10267083      853.
##  4 Afghanistan  1967    34.0 11537966      836.
##  5 Afghanistan  1972    36.1 13079460      740.
##  6 Afghanistan  1977    38.4 14880372      786.
##  7 Afghanistan  1982    39.9 12881816      978.
##  8 Afghanistan  1987    40.8 13867957      852.
##  9 Afghanistan  1992    41.7 16317921      649.
## 10 Afghanistan  1997    41.8 22227415      635.
## # ... with 386 more rows
```
…
```r
# For one continent
(.x <- nest_continent %>% pluck("data", 1))
```

```
## # A tibble: 396 x 5
##    country      year lifeExp      pop gdpPercap
##    <fct>       <int>   <dbl>    <int>     <dbl>
##  1 Afghanistan  1952    28.8  8425333      779.
##  2 Afghanistan  1957    30.3  9240934      821.
##  3 Afghanistan  1962    32.0 10267083      853.
##  4 Afghanistan  1967    34.0 11537966      836.
##  5 Afghanistan  1972    36.1 13079460      740.
##  6 Afghanistan  1977    38.4 14880372      786.
##  7 Afghanistan  1982    39.9 12881816      978.
##  8 Afghanistan  1987    40.8 13867957      852.
##  9 Afghanistan  1992    41.7 16317921      649.
## 10 Afghanistan  1997    41.8 22227415      635.
## # ... with 386 more rows
```
…
### fit a model separately for each continent, and evaluate it, 
all within a single tibble


```r
# For one continent
(.x <- nest_continent %>% pluck("data", 1))
```

```
## # A tibble: 396 x 5
##    country      year lifeExp      pop gdpPercap
##    <fct>       <int>   <dbl>    <int>     <dbl>
##  1 Afghanistan  1952    28.8  8425333      779.
##  2 Afghanistan  1957    30.3  9240934      821.
##  3 Afghanistan  1962    32.0 10267083      853.
##  4 Afghanistan  1967    34.0 11537966      836.
##  5 Afghanistan  1972    36.1 13079460      740.
##  6 Afghanistan  1977    38.4 14880372      786.
##  7 Afghanistan  1982    39.9 12881816      978.
##  8 Afghanistan  1987    40.8 13867957      852.
##  9 Afghanistan  1992    41.7 16317921      649.
## 10 Afghanistan  1997    41.8 22227415      635.
## # ... with 386 more rows
```
…
```r
(newdata <- nest_continent %>% pluck("data", 1))
```

```
## # A tibble: 396 x 5
##    country      year lifeExp      pop gdpPercap
##    <fct>       <int>   <dbl>    <int>     <dbl>
##  1 Afghanistan  1952    28.8  8425333      779.
##  2 Afghanistan  1957    30.3  9240934      821.
##  3 Afghanistan  1962    32.0 10267083      853.
##  4 Afghanistan  1967    34.0 11537966      836.
##  5 Afghanistan  1972    36.1 13079460      740.
##  6 Afghanistan  1977    38.4 14880372      786.
##  7 Afghanistan  1982    39.9 12881816      978.
##  8 Afghanistan  1987    40.8 13867957      852.
##  9 Afghanistan  1992    41.7 16317921      649.
## 10 Afghanistan  1997    41.8 22227415      635.
## # ... with 386 more rows
```
…
```
##        1        2        3        4        5        6 
## 46.58480 48.72054 50.85400 52.97512 55.07635 57.21332
```

```r
(.y <- nest_continent %>% pluck("data", 1))
```

```
## # A tibble: 396 x 5
##    country      year lifeExp      pop gdpPercap
##    <fct>       <int>   <dbl>    <int>     <dbl>
##  1 Afghanistan  1952    28.8  8425333      779.
##  2 Afghanistan  1957    30.3  9240934      821.
##  3 Afghanistan  1962    32.0 10267083      853.
##  4 Afghanistan  1967    34.0 11537966      836.
##  5 Afghanistan  1972    36.1 13079460      740.
##  6 Afghanistan  1977    38.4 14880372      786.
##  7 Afghanistan  1982    39.9 12881816      978.
##  8 Afghanistan  1987    40.8 13867957      852.
##  9 Afghanistan  1992    41.7 16317921      649.
## 10 Afghanistan  1997    41.8 22227415      635.
## # ... with 386 more rows
```
…
```r
# For 1 continent
(.x <- gap %>% pluck("data", 1))
```

```
## # A tibble: 396 x 5
##    country      year lifeExp      pop gdpPercap
##    <fct>       <int>   <dbl>    <int>     <dbl>
##  1 Afghanistan  1952    28.8  8425333      779.
##  2 Afghanistan  1957    30.3  9240934      821.
##  3 Afghanistan  1962    32.0 10267083      853.
##  4 Afghanistan  1967    34.0 11537966      836.
##  5 Afghanistan  1972    36.1 13079460      740.
##  6 Afghanistan  1977    38.4 14880372      786.
##  7 Afghanistan  1982    39.9 12881816      978.
##  8 Afghanistan  1987    40.8 13867957      852.
##  9 Afghanistan  1992    41.7 16317921      649.
## 10 Afghanistan  1997    41.8 22227415      635.
## # ... with 386 more rows
```
…
```r
accumulate(c(1, 2, 3), sum)
```

```
## [1] 1 3 6
```

```r
gap %>% reduce(rbind)
```

```
## # A tibble: 25 x 6
##    country             continent  year lifeExp      pop gdpPercap
##    <fct>               <fct>     <int>   <dbl>    <int>     <dbl>
##  1 Namibia             Africa     2002    51.5  1972153     4072.
##  2 Guinea              Africa     1967    37.2  3451418      709.
##  3 South Africa        Africa     1962    50.0 18356657     5769.
##  4 Chad                Africa     1997    51.6  7562011     1005.
##  5 Morocco             Africa     1962    47.9 13056604     1566.
##  6 Peru                Americas   1997    68.4 24748122     5838.
##  7 Trinidad and Tobago Americas   1962    64.9   887498     4998.
##  8 Cuba                Americas   1982    73.7  9789224     7317.
##  9 Guatemala           Americas   1972    53.7  5149581     4031.
## 10 Mexico              Americas   1977    65.0 63759976     7675.
## # ... with 15 more rows
```
…
